{
        "products":[
            {
                "image": "img/no-image-found.jpg",
                "name": "Product10",
                "cost": "1000"
            },
            {
                "image": "img/no-image-found.jpg",
                "name": "Product11",
                "cost": "1000"
            },
            {
                "image": "img/no-image-found.jpg",
                "name": "Product12",
                "cost": "1000"
            },
            {
                "image": "img/no-image-found.jpg",
                "name": "Product13",
                "cost": "1000"
            }, 
            {
                "image": "img/no-image-found.jpg",
                "name": "Product14",
                "cost": "1500"
            }  , 
            {
                "image": "img/no-image-found.jpg",
                "name": "Product15",
                "cost": "1500"
            } 
              , 
            {
                "image": "img/no-image-found.jpg",
                "name": "Product16",
                "cost": "1500"
            } 
        ]  
}